[gd_scene load_steps=2 format=2]

[ext_resource path="res://Test.cs" type="Script" id=1]

[node name="Node2D" type="Node2D"]

[node name="Button" type="Button" parent="."]
margin_right = 153.0
margin_bottom = 20.0
text = "Run"
script = ExtResource( 1 )
__meta__ = {
"_edit_use_anchors_": false
}
[connection signal="pressed" from="Button" to="Button" method="Run"]
